<?xml version="1.0" encoding="UTF-8" standalone="no"?>
<svg
   xmlns:dc="http://purl.org/dc/elements/1.1/"
   xmlns:cc="http://creativecommons.org/ns#"
   xmlns:rdf="http://www.w3.org/1999/02/22-rdf-syntax-ns#"
   xmlns:svg="http://www.w3.org/2000/svg"
   xmlns="http://www.w3.org/2000/svg"
   xmlns:sodipodi="http://sodipodi.sourceforge.net/DTD/sodipodi-0.dtd"
   xmlns:inkscape="http://www.inkscape.org/namespaces/inkscape"
   version="1.0"
   width="300.000000pt"
   height="208.000000pt"
   viewBox="0 0 300.000000 208.000000"
   preserveAspectRatio="xMidYMid meet"
   id="svg3767"
   sodipodi:docname="logo-white.svg"
   inkscape:version="0.92.4 (5da689c313, 2019-01-14)">
  <defs
     id="defs3771" />
  <sodipodi:namedview
     pagecolor="#ffffff"
     bordercolor="#666666"
     borderopacity="1"
     objecttolerance="10"
     gridtolerance="10"
     guidetolerance="10"
     inkscape:pageopacity="0"
     inkscape:pageshadow="2"
     inkscape:window-width="1920"
     inkscape:window-height="1017"
     id="namedview3769"
     showgrid="false"
     inkscape:zoom="2.1672143"
     inkscape:cx="197.32741"
     inkscape:cy="139.21474"
     inkscape:window-x="-8"
     inkscape:window-y="-8"
     inkscape:window-maximized="1"
     inkscape:current-layer="g3765" />
  <metadata
     id="metadata3743">
Created by potrace 1.15, written by Peter Selinger 2001-2017
<rdf:RDF>
  <cc:Work
     rdf:about="">
    <dc:format>image/svg+xml</dc:format>
    <dc:type
       rdf:resource="http://purl.org/dc/dcmitype/StillImage" />
  </cc:Work>
</rdf:RDF>
</metadata>
  <g
     transform="translate(0.000000,208.000000) scale(0.100000,-0.100000)"
     id="g3765"
     stroke="none"
     fill="#000000"
     style="fill:#ffffff">
    <path
       d="M1185 2004 c-63 -66 -90 -86 -168 -124 -110 -54 -122 -73 -136 -203 -7 -76 -13 -94 -55 -164 -64 -108 -61 -150 21 -274 18 -27 26 -60 34 -130 16 -138 37 -168 152 -211 51 -19 76 -38 142 -105 91 -92 114 -102 195 -84 99 23 155 24 230 6 108 -26 130 -19 225 79 60 61 92 86 130 100 75 28 125 63 141 102 8 19 18 71 23 117 7 73 14 92 55 162 61 106 61 135 0 238 -41 69 -48 88 -55 163 -14 141 -34 167 -159 218 -53 22 -79 41 -143 108 l-77 81 -88 -8 c-102 -9 -195 -9 -310 0 l-83 7 -74 -78z m215 41 c71 -19 127 -19 204 1 96 25 119 17 206 -74 59 -62 87 -83 135 -102 70 -27 111 -54 125 -80 6 -10 14 -60 19 -110 9 -82 14 -99 55 -168 61 -102 61 -132 1 -232 -25 -42 -47 -93 -49 -115 -3 -22 -8 -66 -11 -98 -9 -77 -36 -108 -128 -144 -61 -24 -84 -40 -152 -110 -92 -94 -90 -94 -223 -66 -78 16 -88 16 -166 0 -132 -27 -129 -28 -220 66 -70 70 -91 86 -153 110 -92 36 -119 67 -128 144 -3 32 -8 76 -11 98 -2 22 -24 73 -49 115 -60 100 -60 130 1 232 41 69 46 86 55 168 5 50 13 100 19 110 14 26 55 53 125 80 47 19 76 41 135 101 41 42 82 79 90 82 27 10 64 7 120 -8z"
       id="path3745"
       style="fill:#ffffff" />
    <path
       d="M1280 1750 c0 -5 25 -10 55 -10 l55 0 0 -345 0 -345 -55 0 c-30 0 -55 -4 -55 -10 0 -6 80 -10 220 -10 140 0 220 4 220 10 0 6 -25 10 -55 10 l-55 0 0 345 0 345 55 0 c30 0 55 5 55 10 0 6 -80 10 -220 10 -140 0 -220 -4 -220 -10z"
       id="path3747"
       style="fill:#d40000" />
    <path
       d="M0 225 l0 -225 30 0 30 0 0 225 0 225 -30 0 -30 0 0 -225z"
       id="path3749"
       style="fill:#ffffff" />
    <path
       d="M150 225 l0 -225 35 0 35 0 2 164 3 163 119 -163 c113 -155 122 -164 153 -164 l33 0 0 225 0 225 -35 0 -35 0 -2 -162 -3 -161 -119 161 c-112 154 -120 162 -152 162 l-34 0 0 -225z"
       id="path3751"
       style="fill:#ffffff" />
    <path
       d="M590 420 l0 -30 70 0 70 0 0 -195 0 -195 35 0 35 0 0 195 0 195 70 0 70 0 0 30 0 30 -175 0 -175 0 0 -30z"
       id="path3753"
       style="fill:#ffffff" />
    <path
       d="M1000 225 l0 -225 35 0 35 0 0 85 0 85 39 0 c38 0 40 -2 92 -85 52 -82 55 -85 91 -85 21 0 38 2 38 5 0 3 -24 42 -54 87 l-55 81 39 19 c98 49 91 190 -12 244 -18 10 -62 14 -138 14 l-110 0 0 -225z m215 151 c39 -17 54 -53 39 -95 -13 -36 -48 -51 -121 -51 l-63 0 0 80 0 80 55 0 c31 0 71 -6 90 -14z"
       id="path3755"
       style="fill:#ffffff" />
    <path
       d="M1537 443 c-4 -6 -112 -275 -174 -430 -4 -9 7 -13 34 -13 37 0 40 2 54 43 l16 42 109 3 110 3 15 -43 c14 -39 19 -43 52 -46 21 -2 37 0 37 5 0 4 -39 106 -87 225 l-87 218 -37 0 c-21 0 -40 -3 -42 -7z m77 -168 c19 -50 37 -97 40 -105 5 -13 -7 -15 -78 -15 l-84 0 20 50 c11 28 30 76 42 107 11 31 22 56 23 55 1 -2 18 -43 37 -92z"
       id="path3757"
       style="fill:#ffffff" />
    <path
       d="M1840 225 l0 -225 35 0 35 0 0 166 0 167 121 -167 c115 -159 122 -166 155 -166 l34 0 0 225 0 225 -35 0 -35 0 0 -166 0 -166 -122 166 c-115 157 -124 166 -155 166 l-33 0 0 -225z"
       id="path3759"
       style="fill:#ffffff" />
    <path
       d="M2310 225 l0 -225 150 0 150 0 0 30 0 30 -115 0 -115 0 0 68 0 67 115 -3 115 -3 0 35 0 36 -115 0 -115 0 0 65 0 65 115 0 115 0 0 30 0 30 -150 0 -150 0 0 -225z"
       id="path3761"
       style="fill:#ffffff" />
    <path
       d="M2660 420 l0 -30 70 0 70 0 0 -195 0 -195 35 0 35 0 0 195 0 195 65 0 65 0 0 30 0 30 -170 0 -170 0 0 -30z"
       id="path3763"
       style="fill:#ffffff" />
  </g>
</svg>
